dump.vcd
$date
	Sun Jul 19 22:43:53 2026
$end
$version
	Icarus Verilog
$end
$timescale
	1s
$end
$scope module seq_detector_tb $end
$var wire 1 ! z $end
$var reg 1 " clk $end
$var reg 1 # rst_n $end
$var reg 1 $ x $end
$scope module uut $end
$var wire 1 " clk $end
$var wire 1 # rst_n $end
$var wire 1 $ x $end
$var wire 1 ! z $end
$var reg 3 % current_state [2:0] $end
$var reg 3 & next_state [2:0] $end
$upscope $end
$upscope $end
$enddefinitions $end
$comment Show the parameter values. $end
$dumpall
$end
#0
$dumpvars
b0 &
b0 %
0$
0#
0"
0!
$end
#5
1"
#10
0"
#15
1"
1#
#16
b1 &
1$
#20
0"
#25
b10 &
b1 %
1"
#30
0"
#35
b10 %
1"
#36
b11 &
0$
#40
0"
#45
b0 &
b11 %
1"
#46
b100 &
1$
#50
0"
#55
b10 &
1!
b100 %
1"
#60
0"
#65
0!
b10 %
1"
#70
0"
#75
1"
#76
b11 &
0$
#80
0"
#85
b0 &
b11 %
1"
#86
b100 &
1$
#90
0"
#95
b10 &
1!
b100 %
1"
#100
0"
#105
0!
b10 %
1"
