traffic_dump.vcd
$date
	Sun Jul 19 22:49:22 2026
$end
$version
	Icarus Verilog
$end
$timescale
	1s
$end
$scope module traffic_light_tb $end
$var wire 3 ! lights [2:0] $end
$var reg 1 " clk $end
$var reg 1 # rst_n $end
$scope module uut $end
$var wire 1 " clk $end
$var wire 1 # rst_n $end
$var reg 4 $ count [3:0] $end
$var reg 2 % current_state [1:0] $end
$var reg 3 & lights [2:0] $end
$var reg 2 ' next_state [1:0] $end
$upscope $end
$upscope $end
$enddefinitions $end
$comment Show the parameter values. $end
$dumpall
$end
#0
$dumpvars
b0 '
b1 &
b0 %
b0 $
0#
0"
b1 !
$end
#5
1"
#10
0"
#15
b1 $
1"
1#
#20
0"
#25
b10 $
1"
#30
0"
#35
b11 $
1"
#40
0"
#45
b100 $
1"
#50
0"
#55
b101 $
1"
#60
0"
#65
b1 '
b110 $
1"
#70
0"
#75
b10 !
b10 &
b0 $
b1 %
1"
#80
0"
#85
b10 '
b1 $
1"
#90
0"
#95
b100 !
b100 &
b0 $
b10 %
1"
#100
0"
#105
b1 $
1"
#110
0"
#115
b10 $
1"
#120
0"
#125
b11 $
1"
#130
0"
#135
b0 '
b100 $
1"
#140
0"
#145
b1 !
b1 &
b0 $
b0 %
1"
#150
0"
#155
b1 $
1"
#160
0"
#165
b10 $
1"
#170
0"
#175
b11 $
1"
#180
0"
#185
b100 $
1"
#190
0"
#195
b101 $
1"
#200
0"
#205
b1 '
b110 $
1"
#210
0"
#215
b10 !
b10 &
b0 $
b1 %
1"
